Account number|ISBN|Author/Publication|Title|Copies|Status
H/FPB 1|978-81-8263-447-3|S, Shyamala|Ghummakad Badal||
H/FPB 2|978-81-89934-60-6|Dharamarajan, Geeta|Chand, Ramu Aur Mai||
H/FPB 3|978-81-8263-065-9|Chavan, Madhav|Hum Sub Prani||
H/FPB 4|978-81-8479-226-3|Kumar, Mala|Kagaz ka Jaadu||
H/FPB 5|978-93-8665-254-6|Vikram, Sarvendra| |2|
H/FPB 6|978-81-85586-05-2|Dharamarajan, Geeta|Aadha Oujha Raja Aadha||
H/FPB 7|978-81-8479-196-9|Kumar, Mala|Ritu ki Lambi Chitthi||
H/FPB 8|978-81-89020-85-9|Ramchander, Sahadna|Autorikshaw Ke Sang Thrah- Tarah K Sang||
H/FPB 9|978-81-8479-044-3|Jagannathan, Bharati|Sameera Gayi Bazaar||
H/FPB 10|978-81-8479-246-1|Apte, Anupama Ajinkya|Gulli ka Gazhab Pitara||
H/FPB 11|978-81-8479-564-6|Bapat, Radhika|Taklu - Namak ka Nanha Vyapari||
H/FPB 12|978-81-89934-72-9|Thakur Rabindranath|Kumhar Basti Ki Belgadi||
H/FPB 13|978-81-8479-012-2|Bannerjee, Rukmini|Kahaniyon ka Shahar||
H/FPB 14||Rao, Cheryl|Nanhe Madadgaar||
H/FPB 15|978-81-89934-69-9|Dharamarajan, Geeta|Aare Nahi! Phir Nahi||
H/FPB 16|93-5046-217-6|Dastidar Reshmi|Aa0||
H/FPB 17|978-81-250-3503-9|Elappan, Urmila|Sahjeevan||
|81-250-3503-6||||
H/FPB 18|978-81-8263-200-4|Lal, Anupa|Sura aur Sher Singh||
H/FPB 19|978-81-8479-112-9|Swami, Shridala|Sushila ke Kolam||
H/FPB 20|978-81-8146-089-9|Raghunath, Jeeva|Malli||
H/FPB 21|978-81-8263-428-2|Chaturvedi, Pankaj|Khushi||
H/FPB 22 (A)|978-81-8263-963-8|Noni|Chup! Meri Naak Kuchh Keh Rahi Hai||
H/FPB 23 (A)|978-81-8479-241-6|Ashok, Mala|Rama ke Taare||
H/FPB 24 (A)|978-81-8479-552-3|Nambiar, Preeti|So Jao Tinku!||
H/FPB 25|978-81-8479-216-4|Noni|Abhi Nahi, Abhi Nahi!||
H/FPB 26 (A)|978-81-8479-271-3|Vachrajani, Anita|Naina aur Ull||
H/FPB 27 (A)|978-81-8263-420-6|Goswami, Amar|Sher ka Hauda||
H/FPB 28 (A)|978-93-5022-308-6|Rao, Cheryl|School ka Pahala Din||
H/FPB 29|812377997-6|Sharma, ashok Kumar|Kamaal Kaa Jadu||
H/FPB 30|978-81-89934-71-2|Nainy, Mamta|Bioscope||
H/FPB 31|978-81-89934-54-5|Dharmarajan, Geeta|Dinosaur 127- Baccho - Jitna Lamba||
H/FPB 32|978-81-89934-62-0|Bharadwaj, Meenakshi|Mai Hu Aan||
H/FPB 33|978-81-89934-56-9|Bai, Durgi|Mahi Aur Uske Dost||
H/FPB 34|978-81-8263-416-9|Joshi, Jagdish|Gol Gol Golu||
H/FPB 35|978-81-89934-41-5|Dharmarajan, Geeta|Sui Nok Par Tha Aik||
H/FPB 36|978-81-8479-251-5|Sharma, Natasha|Kaka aur Munni||
H/FPB 37|978-81-8263-701-6|Agrawal, Tanya Luther|Meow ki Chori||
H/FPB 38 (A)|978-81-8479-261-4|Purandare, Madhuri|Papa ki Muchhe||
H/FPB 39|978-93-5022-694-0|Byrnes, Alison|Humein To Koi Dikkat Nahi Hai||
H/FPB 40|978-93-82454-34-2|Shridhar, Nirananjani Shrujana|Aamu Ki Kawandi||
H/FPB 41 (A)|978-81-7655-673-6|Lawsan Chelfet wendy|Gun Gun Karti Madhumakhi||
H/FPB 42|978-81-8263-142-7|Gowda, Venkatraman|Kachhua aur Khargosh||
H/FPB 43|978-818477-027-8|Vivekanand Roy Ghatak|Nanha Suar Chala Maa ko Dhundne||
H/FPB 44|978-81-7655-857-0|Balkaran, Kunti Ramdat|Nanha Bandar Kho Gaya||
H/FPB 45 (A)|978-81-7655-972-0|Balkaran, Kunti Ramdat|Chuhe Ne Dekhi Duniya||
H/FPB 46|978-81-8263-043-7|Shriprasad|Pahali Paheliyaan||
H/FPB 47|978-93-82454-14-4|Atken, Steefan|Nani Megha Ki Abhilashi||
H/FPB 48|978-81-89934-87-3|Lagnajeen, Calodiya|Mera Ek Ghar||
H/FPB 49|978-81-89934-37-8|Kasim, Sireen|Kuttan Aur Toodthe Tare||
H/FPB 50|978-81-89934-36-1|Kasim, Sireen|Kuttan Ka Naya Dost||
H/FPB 51|978-81-8263-049-9|Bannerjee, Rukmini|Chalo Kitabein Kharidane||
H/FPB 52|978-81-89934-7|Kasim, Sireen|Kuttan Ko Milli Kushi||
H/FPB 53 (A)|978-81-7655-653-8|Bridwell Norman|Nanhon Ka Pariwar||
H/FPB 54|978-81-8263-048-2|Sanjay', Sanjeev Jaiswal|Chanda Mama||
H/FPB 55|978-81-89013-53-0|Hussain, Zakir|Usi se thanda Usi se Garam||
H/FPB 56|978-93-8672-123-5|Ram, Prabha and Prueitt, Sheela|Har Ped Zaruri Hai!||
H/FPB 57 (A)|978-81-7655-906-5|Brush Debora|Kitab! Kitab ! Kitab !||
H/FPB 58|812370382-1|Ballikanan| Bus Ki Sair||
H/FPB 59|978-81-8263-039-0|Ohri, Harminder|Rondu aur Mukki||
H/FPB 60|812372329-6|Vishakha| Jadugar||
H/FPB 61|812374268-1|Ray, Anup| anandi Ka Indradhanus||
H/FPB 62|978-81-8479-522-6|Padamsi, Shamim|Kagbhagodon ki Thitholi||
H/FPB 63|978-81-8479-461-8|Solberg, Lisa Aisato N'jie|Meri Parnani aur Meri Pardadi||
H/FPB 64|978-93-5022-332-1|Sharma, Natasha|Kya Pehnoon?||
H/FPB 65|978-81-8263-669-9|Anand, Paro|Shehar mein Sher||
H/FPB 66|978-81-8263-424-4|Chaturvedi, Pankaj|Chanda aur Khargosh||
H/FPB 67|978-93-5022-185-3|Vachrajani, Anita|Ambili||
H/FPB 68|978-81-8263-336-0|Naz, Arshi|Mera Parivar||
H/FPB 69|978-81-8263-709-2|Bannerjee, Rukmini|Rumaniya||
H/FPB 70|812377820-1|Kumar Hemant| Ghar ki Khoj||
H/FPB 71|978-81-8263-768-9|Parismita|Mota Raja Dubla Kutta||
H/FPB 72|978-81-8479-558-5|Menon, Suraj J|"Meri Machhali!Nahi, Meri Machhali!"||
H/FPB 73|978-81-8263-432-9|Sanjay, Sanjeev Jaiswal|Raja ka Dard||
H/FPB 74|812373949-4|Thanvi, Ramesh| Bhor Bhai||
H/FPB 75|978-81-8479-266-9|Purandare, Madhuri|Jui Mausi ki Beti||
H/FPB 76|978-81-8263-240-0|Sidhwa, Bapsi|Saat puchhon wali Chuhiya||
H/FPB 77|978-81-8263-348-3|Ohri, Harminder|Lalchi Chuhe ji||
H/FPB 78|978-81-8263-772-6|Bannerjee, Rukmini|Mera Ghar||
H/FPB 79|812376016-7|Prahraj Deepak| Kahani Do Kutton ki||
H/FPB 80|978-93-5022-338-3|Noni|Kitna Shor||
H/FPB 81|978-81-8263-895-2|Noni|Salana Bal-Katai Diwas||
H/FPB 82|812377764-7|Vaishnav Pitambar das| Bastar Men Amavsya||
H/FPB 83|978-81-8263-361-2|Savitri|Chulbul ki Puchh||
H/FPB 84|978-93-5022-026-9|Ram, Prabha|Subbu Signal||
H/FPB 85|978-81-8263-414-5|Sanjay', Sanjeev Jaiswal|Waha hans diya||
H/FPB 86|978-81-7655-036-9|Gulzar| Ek Me Do||
H/FPB 87|978-93-81300-91-6|Barn,Nikolas|Patang Ki Karamaat||
H/FPB 88|978-81-8263-259-2|Pai, Rupa|Didi, didi, cheezein upar kyon nahi girti hain?||
H/FPB 89|812374768-3|Sharma J. B| Singh Aur Kantachuha||
H/FPB 90 (A)|978-81-8263-256-1|Pai, Rupa|Didi, Didi, Aakash Ka Rang Neela Kyon Hai?||
H/FPB 91|978-81-8263-946-1|Alkazi, Faisal|Dosti ka Safar||
H/FPB 92 (A)|978-81-8479-528-8|Sharma, Natasha|Anaya ka Angootha||
H/FPB 93|978-93-5022-320-8|Lal, Anupa|Mere palang ke neeche||
H/FPB 94|812372798-4|Jagdish Joshi| Ek din||
H/FPB 95|978-81-8479-276-8|Bahl, Ambika|Ek More jo Naacha nahi||
H/FPB 96|978-81-8263-408-4|Sanjay', Sanjeev Jaiswal|Pehelwaan ji||
H/FPB 97|978-93-5022-302-4|Rao, Cheryl|Hasna mana hai||
H/FPB 98|978-81-8479-424-3|Pulu, Fidi|Meri Car||
H/FPB 99 (A)|978-81-8263-426-8|Chaturvedi, Pankaj|Yeh main hoon||
H/FPB 100 (A)|978-93-5022-022-1|HS, Radha|Mujhe School Nahin Jaana||
H/FPB 101|978-81-8479-317-8|Kumar, Mala|Garjey Baadal Naachey More||
H/FPB 102|978-81-8263-233-2|Sengupta, Subhadra|Raza aur Baadshah||
H/FPB 103|978-81-8479-206-5|Sengupta, Subhadra|Manch par Khilandari||
H/FPB 104|978-81-8263-235-6|Sengupta, Subhadra|Lal Pal ka Jahaaz||
H/FPB 105|978-81-8479-312-3|Kumar, Mala|Chaandani Mein Garam Kheer||
H/FPB 106|978-81-8479-332-1|Kumar, Mala|Garmagaram chai chahiye!||
H/FPB 107|812374930-9| Jagdish Joshi| Paheli||
H/FPB 108|978-81-8479-327-7|Kumar, Mala|Lassi ya Faluda?||
H/FPB 109|978-81-8263-234-9|Sengupta, Subhadra|Samrat ki Shobhayatra||
H/FPB 110|978-81-8263-232-5|Sengupta, Subhadra|Swatantrata ki aur||
H/FPB 111|978-81-8263-636-1|Sudhakar, Sumati|Plastic Pishach ka peecha||
H/FPB 112|978-81-8479-306-2|Mishra, Anupam|Dai ke Taalaab||
H/FPB 113|978-81-8479-221-8|Kumar, Ramendra|Paplu Rakshas||
H/FPB 114|812375509-0|Chakravarthy Bimlender| Jungle Ek Dost||
H/FPB 115|978-818263-710-8|Seshadri, Veena|Gussail Gus||
H/FPB 116|978-93-5022-030-6|Ansariyan, Masumeh|Main aur meri Rangeen Pencil||
H/FPB 117 (A)|978-81-8479-499-1|Juanga Writer's Group|Doong Doong Dum Dum||
H/FPB 118|978-81-8479-505-9|Kui Writer's Group|Lomdi aur Mitti ka dhela||
H/FPB 119|812376247-x|Rohit Guptu| Piu Aur Uske Jadui Dost||
H/FPB 121|978-93-5022-296-6|Lal, Anupa|Meri Saheli||
H/FPB 122|978-81-8479-344-4|Gupto, Shorit|Bunty aur Babli||
H/FPB 123|978-93-5022-314-7|Kasturiya, Kiran|Laal Barsaati||
H/FPB 124|978-81-8263-066-6|Fraser, Olivia|Made in India||
H/FPB 125|812377637-3|Chaturvedi Pankaj| Jab Milen To Abhivaadan Karen||
H/FPB 126|978-93-5022-035-1|Rohatgi, Jolly|Mumtaz ne kaadhe apney sapney||
H/FPB 127|978-81-8479-105-1|Handa, Nimrit|Bagh ki sair||
H/FPB 128|978-81-8263-901-0|Pai, Madhuri|||
H/FPB 129|||||
H/FPB 130|978-81-8479-211-9|Sengupta, Subhadra|Dhobi Gawaiya Bishnu||
H/FPB 131|978-81-8479-519-6|Saura Writer's Group|Siyar ki haar||
H/FPB 132|812375524-4|Gupta, Pracheta| Dost||
H/FPB 133|978-81-8479-508-0|Kui Writer's Group|Khargosh key lambey kaan||
H/FPB 134|812376695-5|Chaturvedi Pankaj|Mera pahla Hawayi safar||
H/FPB 135|978-81-8479-510-3|Munda Writer's Group|Naach uthey Haathi||
H/FPB 136 (A)|978-81-8479-515-8|Munda Writer's Group|Soma kya boye?||
H/FPB 137|978-81-8479-513-4|Munda Writer's Group|Paani ka Beej||
H/FPB 138|978-81-8479-109-9|Shukla, Prayag|Oot chala bhai! Oot chala||
H/FPB 139|978-93-85236-08-2|Murmu,Gurucharan|Karo-Koeli||
H/FPB 140|978-93-5022-031-3|Agrawal, Tanya Luther|Masala chai||H/FE - 85 (Wrongly put in the picture book section)
H/FPB 141|978-81-8479-230-0|Pratham Books|Saatavan Suraj||
H/FPB 142|978-81-8263-707-8|Lal, Anupa|Thoda sa aur||
H/FPB 143|978-93-5022-025-2|Baumgart, Clause|Lanny-tuktuk Ek Dost ki Zarurat hai||
H/FPB 144|978-81-8479-076-4|Swami, Shridala|Fani ki chanchal chappal||
H/FPB 145|812373494-8|Rajesh, T.R| Hati Aur Bhaware Ki Dosti  ||
H/FPB 146 (A)|978-93-5022-094-8|Kumar, Vijay|Haathi ka Bukhaar||
H/FPB 147|812372002-5|Jafa, Manorama| fool Aur Mai||
H/FPB 148|978-93-5022-190-7|Surti, Aabid|Gijubhai ka khazana||
H/FPB 149|978-93-5022-278-2|Spillman, Ken|Udne wala Auto||
H/FPB 150|812372178-1|jafa, Manorama|Sher Aur Mitthu||
H/FPB 151|978-81-8263-376-6|Anand, Paro|Bhablu Bhalu ki Sair||
H/FPB 152|9788180000000|Goswami, Amar; Sengupta, Partho|Tap Tap tapak||
H/FPB 153|978-81-89020-96-5|Vharadwaj, Minakshi|Gishnu Ki Chaturai||
H/FPB 154|93-5046-208-7|Paul, Ranjitham|Nanha Mendak||
H/FPB 155|||||
H/FPB 156|978-81-8146-235-1|Varma, Vinayak|Upar Neechey||
H/FPB 157|||||Intentionally left blank Fill new book
H/FPB 158|978-81-8263-064-9|Pai, Madhuri|Hawa||
H/FPB 159|978-81-8263-330-3|Kirloskar, Leela|Varsha||
H/FPB 160|978-81-8146-095-2|Rao, Sandhya|Nani ki Aankhein||
H/FPB 161|978-81-8263-772-4|Bannerjee, Rukmini|Mera Ghar||
H/FPB 162|978-81-8263-060-6|Chavan, Madhav|Rang Birang||
H/FPB 163|978-81-8263-430-X|Chaturvedi, Pankaj|Main bhi kuchh karoo||
H/FPB 164|978-93-80141-06-0|De Kockere, Hearth|Vili||
H/FPB 165|812377731-0|Kashyap Jaymati| Ghunghru||
H/FPB 166||Bhasin, Kamla|Ulti Sulti Meeto||
H/FPB 167||Bhasin, Kamla|Ulti Sulti Meeto||
H/FPB 168|978-81-8263-046-8|Sanjay', Sanjeev Jaiswal|Suraj ka gussa||
H/FPB 169|812370552-2|Wadiya mehru J| Ham Hindustani||
H/FPB 170|812370858-0|Halui Ganesh|Mendak Aur Saamp||
H/FPB 171||Bhasin, Kamla|Ulti Sulti Amma||
H/FPB 172|978-81-237-0858-0|Haloi, Ganesh|Mendhak aur Saap||
H/FPB 173|978-81-7655-891-4|Lilley Gard . D|Mendhak  Ka nashta||
H/FPB 174|978-81-89020-90-3|Anand, Charu|Gupgupangdas||
H/FPB 175 (A)|978-81-89020-88-0|Krishnaswami, Shanti|Bagh ka panja||
H/FPB 176|978-81-89020-64-9|Krishnaswami, Shanti|Kamal se bhara aakash||
H/FPB 177|978-81-89020-91-0|Dharamarajan, Geeta|Kaash, ek beta mera bhi hota!||
H/FPB 178|978-93-82454-27-4|Dharamarajan, Geeta|Aandhi||
H/FPB 179|978-93-82454-01-4|Tagore, Rabinderanath|Campa Ka Ek Phool||
H/FPB 180|978-93-82454-25-0|Dharamarajan, Geeta|Hic!copotamus||
H/FPB 181|978-81-89020-94-1|Dharamarajan, Geeta|Shanno aur uske 100 haathi||
H/FPB 182|978-81-89020-92-7|Dharamarajan, Geeta|Kokila ka mast matka||
H/FPB 183|978-81-8479-505-9|Kui Writer's Group|Lomdi aur Mitti ka dhela||
H/FPB 184 (A)|978-81-8479-508-0|Kui Writer's Group|Khargosh key lambey kaan||
H/FPB 185|978-93-8672-103-7|Manokaran, Jeyanthi|Patang||
H/FPB 186|978-9-8665-286-7|Vikram, Sarvendra|Dal Ka Dana||
H/FPB 187|812377088-X|Rushnik, Mihow|Nanha Shoupen||
|978-81-237-7088-8||||
H/FPB 188|978-81-237-2325-9|Balasubramanian, K|Barsaat Kab Hogi?||
H/FPB 189|978-81-237-4242-7|Mitra, Endrila|Pakki Dosti||
H/FPB 190|818146184-3|Kale, Kavita Singh|Avneet Aunty Ka Mobile Phone||
H/FPB 192|978-81-89020-87-3|Kaveri, D.|Mitanji||
H/FPB 193 (A)|978-81-89934-49-1|Dharamrajan Geeta|Thathu ur mai||
H/FPB 194|978-81-8470-519-6|Saura Writer's Group|The Jackal's Loss||
H/FPB 195|978-81-89934-93-4|Hsu, Ling Kuei|Mimi Ki Jaduuei Nagari||
H/FPB 196|978-93-8634-615-5|Sumitran, Neha|Aao Beej Ratoren!||
H/FPB 197|978-81-8479-517-2|Saura Writer's Group|The Catty Ratty Tale||
H/FPB 198|978-93-80141-01-5|Sande, Hans|Dost Khargosh Aur Sanp Ki||
H/FPB 199|978-93-5022-190-7|Surti, Aabid|Geejubhai Ka Khajana||
H/FPB 200|81-89013-40-8|Hussain, Zakir|Saeede ki Amma||
H/FPB 201|978-93-5022-369-7|Aanwar, Shahied|Tuti Choch Wala Toota||
H/FPB 203|81-89013-53-X|Hussain, Zakir|Usi se thanda Usi se Garam||
H/FPB 204|978-81-8479-499-1|Juanga, Sanatan|Doong Doong Dum Dum||
H/FPB 205|81086895-67-1|Pandiya, Mamta|Muft hi Muft||
H/FPB 206|81-89013-21-1|Hussain, Zakir|Gule Abbas||
H/FPB 207|81-86895-36-1|Naidu, Vaiyu|Moor Pankh par Aankhen Kiasi||
H/FPB 208|812370860-2|Sen Gupta, Ashish|Lal Patang aur Lalu||
H/FPB 209|978-93-80536-03-3|Hashmi, Safdar|Sare Mausam Ache||
H/FPB 210|978-93-80141-16-9|Agarwal, Pushpa|Nae Ghar me Bugli||
H/FPB 211|||||
H/FPB 212|81-8689-67-1|Pandya, Mamta|Muft hi Muft||
H/FPB 213|818146241-6|Rao, Sandhya|Bachaao Bachaao||
H/FPB 214|978-93-8665-259-1|Gupta, Arvind|Kitni Bari Maachis!||
H/FPB 216|81-8263-709-0|Bannerjee, Rukmini|Romniya||
H/FPB 217|978-93-5022-684-1|Tirthapura, Gayathri|Dam Dama Dam Baryani!||
H/FPB 218|81-86895-71-X|Rao, Sandhya|Mazzu Mazzu||
H/FPB 219|81-8146-110-X|Balsawar, Deepa|Beej||
H/FPB 220|812370416-x|Balsubramanayan Kamakshi|muthu Ke Sapne||
H/FPB 221|812370381-3|Manokaran, Jayanti| kitnee  Pyaree hai Ye Duniya||
H/FPB 222|812371809-8|Vishwas Dulak| Chhoti Chinti Kamm Bada||
H/FPB 223|81-8146-141-X|Jain, Sakshi|Me Kaun Hun||
H/FPB 224|81-8263-637-X|Sudhakar, Sumati|Barkha Devi ki Khooj||
H/FPB 225|81-8263-639-6|Sudhakar, Sumati|Jangal Me Khatra||
H/FPB 226|978-93-8634-635-3|Gupta, Arvind|Shawl Ka Aakhir Kya Hua?||
H/FPB 227|812370862-9|Sengupta aashish| Azad Karo||
H/FPB 228|978-93-80141-4|Jagtenburg E Von| Lali Aur Uska Ghora||
H/FPB 229|81-7011-952-9|Shrivastava, Mirilalini|Kaun Bada||
H/FPB 230|||||Intentionally left blank. Fill new book
H/FPB 231 (A)|978-93-5022-024-5|H S, Radha|Me Aur Meri Billo||
H/FPB 234|81-25035036|Elappam, Urmila|Sahjeevan||
H/FPB 235|978-81-8263-039-0|Ohri, Harminder|Rondoo Aur Mukki||
H/FPB 236|978-81-89020-90-3|Anand, Charu|Gupgupangdas||
H/FPB 237|978-81-89020-89-7|Marwaha, Mala|Jadui Martaban||
H/FPB 238 (A)|81-86895-36-1|Naidu, Vaiyu|Moor Pankh par Aankhen Kiasi||
H/FPB 239|81-89013-42-4|Hussain, Zakir|Abbu Khan ki Bakri||
H/FPB 240|81-250-3502-8|Gangwani, Deepa|Phusphusate Tad||
H/FPB 241|978-93-86697-02-8|Mohini, Mudit|Eina Lamba Kyun Hun Mai?||
H/FPB 242|978-81-8479-052-8|Jagannathan, Bharati|Yeh bhi Koe Khana Hai||
H/FPB 243|978-93-86697-00-4|Asthana Girija Rani|Bhulakkad Aman||
H/FPB 244|81-237-0552-2|Vadiya, Mehru J|Hum Hindustani||
H/FPB 245|||||Intentionally left blank. Fill new book
H/FPB 246||Bhasin, Kamla|Dhammak Dhum Bachon Ke Geet||
H/FPB 247|81-8146-642-X|Mani, Lata|Makri ka Jala||
H/FPB 248|81-7011-686-4|CBT Parkashan|Hathi Ghoda Paliki||
H/FPB 251|978-93-5022-090-0|Krishna,Vinita|Meri Ungliyan Mere Haath||
H/FPB 252|||||
H/FPB 253|978-81-8479-052-8|Jagannathan, Bharati|Yeh bhi Koe Khana Hai||
H/FPB 254||UNICEF|Meri Saheli Uma||
H/FPB 255|978-81-89934-46-0|Dharamarajan, Geeta|Kisne Banaya||
H/FPB 256|978-81-89934-44-6|Chaterji, Kaveri|Bas ek Pahadi||
H/FPB 257|978-93-81300-92-3|Hussain,Ashok|Saanp Ne Socha||
H/FPB 258|978-93-82454-32-8|Navale, Malavika|Khajana Tibet Se||
H/FPB 259|978-81-8452-023-1|Khanna, Vinita|Kho Gaye Gaind||
H/FPB 260|978-81-89976-91-0|V. Suteyev|Rushi Aur Pushi||
H/FPB 261|978-93-80141-13-8|Ask, Leena|Nae Ghar me Gadbadi||
H/FPB 262 (A)|978-81-89934-28-6|Rajan, Geeta|Mashhur Muskaan||
H/FPB 263|978-93-5065-218-3|Mohindra, Kamlesh|Badal Aur Bijli||
H/FPB 266|978-81-8479-147-1|Jain, Geetika|Samundr ki Deevi Sedna||
H/FPB 267|978-81-89976-83-5|Harikumar, Indu|Appukuttan Ko Tolein Kaise?||
H/FPB 268|978-81-8479-140-2|Jain, Geetika|Van Ji Utho||
H/FPB 269|978-93-80141-05-3|Vislander, Yuya|Kajri Gae ne ki Safae||
H/FPB 270 (A)|978-81-89934-58-3|Castellaons Diego|Geng Swarg||
H/FPB 271|978-93-85236-02-0|Ajad, mahajan keshabraji|Ek Ladki, Ek Ladka Aur Ek Patang||
H/FPB 272||PBI India Private Limited|Gupt Khazana||
H/FPB 273|93-5046-375-X|Navaneet, Aarti Anand|Ranganna||
H/FPB 274|81-8146-917-8|Nair, Nandini|Amma kahan hai?||
H/FPB 275|978-93-8634-605-6|HS, Radha|Kahaan Gaya Gaalon Ke Gaddhe?||
H/FPB 276|978-81-8263-064|Pai, Madhuri|Hawa||
H/FPB 277||UNICEF|Tand||
H/FPB 279|978-81-89934-82-8|Aaep, Rajev|Chota Bada||
H/FPB 280||Padamsi, Shamim|Panchhistan ka maha khel samaroh||
H/FPB 281|978-81-89934-84-2|Thakur, Rabindranath|Megh aur Tarang||
H/FPB 282|978-81-89934-03-3|Detha, Vijaydan| Apne Apne Pasand||
H/FPB 283|978-93-8634-601-8|Lal, Anupa|Reethi aur Mithu||
H/FPB 284||Kaushik, kamlesh|Ziddi Tina||
H/FPB 285|978-81-8263-910-2|kumar, mala|Seekhe Ganit khushi khushi||
H/FPB 286|81-237-2629-5|Pranjape , Ravi|Paani Hi Paani||
H/FPB 287|978-81-216-2022-22|Naitik Kahaniyan|Shant Rahein||
H/FPB 288|978-81-89934-05-5|Dharmarajan Geeta| Hhati Ka wajan  Kesea Kare?||
H/FPB 289|978-81-216-2020-8|Naitik Kahaniyan|Har samay khush rahein||
H/FPB 290|978-81-216-1665-2|Naitik Kahaniyan|Dusron ki madad karein||
H/FPB 291|978-81-216-2021-5|Naitik Kahaniyan|Achchha Aachran||
H/FPB 292|978-81-216-2019-2|Naitik Kahaniyan|Dusron ki madad karein aur dusrein bhi aapki madad karenge||
H/FPB 293|978-1-4063-0173-1|Alborough, Jez|Tall||
H/FPB 294|93-5046-140-4|Jain, Alankrita|Boodabim||
H/FPB 295|935046095-5|Singh, Roma|Jadui Pankh||
H/FPB 296|93-5046-168-4|Sabnani, Neena|Baat Wahi Hai||
H/FPB 297|93506521-3|Rao, Sandhya|Rait Par Kisse||
H/FPB 298|935046473-X|Venkatesh, Arundhati|Chhota Kumbhakarn||
H/FPB 299|935046548-5|Dai, Mamang|Hambreelmai Ka Kargha||
H/FPB 300|935046052-1|Makhija, Devashish|Kyon Heeroo hua hairaan||
H/FPB 301|81-85229-36-8|Rao, Sandhya|Ekki Dukki||
H/FPB 302 (A)|81-8146-382-X|Alam, Amra|Jhakkad||
H/FPB 303|978-81-89020-82-8|Dai, Mamang|Aasman Ki Rani||
H/FPB 304 (A)|818146802-3|Dheer, Sheela|Nanhi Ungliyaan||
H/FPB 305|935046538-8|Sam, Aster|Daudh Nadiyon Ki||
H/FPB 306|935046591-4|Kaur, Gurpreet|Nikku Ka Paintbrush||
H/FPB 307|978-93-82454-21-2|Paavannan|Ek Anokha Safar||
H/FPB 308|978-81-8146-890-1|Sasikumar, Kala|Chaar Dost||
H/FPB 309|818689579-5|Rao, Sandhya|Meethi Namkeen||
H/FPB 310|81-8146-345-5|Sabnani, Neena|Mukand Aur Riyaaz||
H/FPB 311|81-8146-944-5|Balsavar, Deepa|Raja-Raani Ki Kahaniya||
H/FPB 312 (A)|93-5046-357-1|Besant, Annie|Jab Main Bada Ho Jaunga||
H/FPB 313|978-81-89934-67-5|Nagrajan, Mallika|Mahi Aur Ped Ka Hathi||
H/FPB 314 (A)|935046428-4|Subramaniam, Nivedita|Tsomo Aur Momo||
H/FPB 315|81-8146-053-7|Chanchani, Vishakha|Baavre Beej||
H/FPB 316|93-5046-254-0|Mani, Lata|Madhumakkhi Master||
H/FPB 317|978-93-8634-617-9|978-93-8634-617-9|Oopar Ki Duniya, Neeche Ki Duniya||
H/FPB 318|81-8146-642-X|Mani, Lata|Makdi Ka Jaala||
H/FPB 319|818146157-6|Ranjit, Lal|Naachti Madhumakkhiyan||
H/FPB 320|978-81-89934-40-8|Alemanya, Biyatis|Aik Sher Paris Me||
H/FPB 321|935046676-7|Devi, Mahasweta|Dabang Gaay Hamaari||
H/FPB 322 (A)|93-5046-245-1|Bala, Krish Arvind|Mahabali Makuna||
H/FPB 323|93-5046-034-3|Makhija, Devashish|Jab Ali Bana Bajrangbali||
H/FPB 324|81-8146-971-2|Kakani, Muriel|Neel Ka Rahasye||
H/FPB 325 (A)|93-5046-078-5|Shah, Malti|Himchampa||
H/FPB 326|93-5046-149-8|Shetty, Malvika|Sabse Meetha Aam||
H/FPB 327|978-93-86188-93-9|Sinha, Nileema|Bela Aur Ajnabi||
H/FPB 328|935046629-5|Bheel, Singh Sher|Ek Bheel Katha||
H/FPB 329|81-8146-034-0|Chadha, Radhika|Mujhe Sona Hai||
H/FPB 330|818146191-6|Chadha, Radhika|Kharraata Shanmugam||
H/FPB 331|81-8146-390-0|Chadha, Radhika|Rang Rang Kamini||
H/FPB 332 (A)|81-8146-770-1|Chadha, Radhika|Haan, haan, Hutoxi!||
H/FPB 333|81-8146-625-X|Chadha, Radhika|Malippu Kahan Hai Tu||
H/FPB 334|935046648-1|Rajendran, Soumya|Udh Chali||
H/FPB 335|978-81-906971-7-0|Gasempour,Akhram|Nilofar Ki Muskan||
H/FPB 336|81-89020-85-4|Ramchandar, Sadhna|Autoriksha ke rang tarha tarha ke rang||
H/FPB 337|935046711-9|Amarendran, R.|Dhaarwaala Saleem||
H/FPB 338|||||
H/FPB 339 (A)|93-5046-437-3|Vishwanath, Tarini|Pakdo Pakdo Uss Bille Ko||
H/FPB 340 (A)|93-5046-345-8|Shroff, Vaishali|Cham Cham Baarish||
H/FPB 341|81-8146-908-9|Devpurkar, Sulbha|Pintoo aur daanav||
H/FPB 342|81-8146-069-3|Chadha, Radhika|Basava Aur Aag Ke Bindu||
H/FPB 343|818146281-5|Rao, Sandhya|Ghumakkad Cheenti Naani||
H/FPB 344|81-8146-406-0|Williams, Gilani Fawzia|Ismat Ki Eid||
H/FPB 345|93-5046-446-2|Bashi, Gayathri|Meenu Aur Uske Baal||
H/FPB 346|978-93-86697-01-1|Nileema, Sinha|Chiku Ki Film||
H/FPB 347|81-8146-712-4|Nair, Nandini|Tumne Kya Dekha||
H/FPB 348|81-8146-784-1|Rajendran, Soumya|Batti Gul||
H/FPB 349|818146359-5|Padamsi, Shamim|Deewaron Par Nritye||
H/FPB 350|81-81468-11-2|Padamsi, Shamim|Bondapur Ki Ek Ajab Kahani||
H/FPB 351|93-5046-316-4|Rajendran, Soumya|Hansmukh Raakshas||
H/FPB 352|978-81-89976-53-8|Nayar, Nandini|Pranav School Kaise Gaya?||
H/FPB 353|818146248-3|Bhatt, Ashwini|Chalti Rahe Kahani||
H/FPB 354|93-5046-159-5|Bordoloi, Mita|Bulbuli Ke Baans||
H/FPB 355|81-8146-703-5|Padmanabhan, Manjula|Kanan Gayi Billi||
H/FPB 356|935046493-4|Thomas, Meenu|Fakruddin Ka Fridge||
H/FPB 357|93504659-7|Whitaker, Zai|Kanna Panna||
H/FPB 358|818146255-6|Balsavar, Deepa|Sameer Ka Ghar||
H/FPB 359|818146269-6|Nair, Nandini|Main Kya Banau||
H/FPB 360|978-81-89976-65-1|Rinchin|Main to Billi Hoon!||
H/FPB 361|978-81-89934-14-9|Vishwanath, Suraj|Lucus Ka Girjaghar||
H/FPB 362 (A)|978-81-7655-654-5|Maccarone Grace|Pathar Me Fansi Talwar||
H/FPB 363|81-8146-450-8|Subramaniam, Niveditha|Jalebi Curls||
H/FPB 364|978-93-80141-50-3|Eng, Lennart| Whelu Mahasagar Mein||
H/FPB 365 (A)|978-81-7655-677-4|Touchman Gail|Jhulo Jhulo Jhulo||
H/FPB 367|81-8146-835-x|Rajagopalan, Ashok|Gajapatti Kulatipati||
H/FPB 368|818146235-1|Verma, Vinayak|Upar Niche||
H/FPB 369|93-5046-112-9|Subramaniam, Niveditha|Click||
H/FPB 370|978-81-8263-046-8|Jaisawaal, Sanjeev|Suraj Ka Gussa||
H/FPB 371|81-8146-935-6|Eshwar, Vinod Lal Heera|Chalo, ped Lagayein||
H/FPB 372|93-5046-227-3|Eshwar, Vinod Lal Heera|Chalo, baarish pakdein||
H/FPB 373|81-8146-577-6|Balsavar, Deepa|Poonch||
H/FPB 374|81-8146-498-2|Rao, Sandhya|Shhh||
H/FPB 375|81-8146-550-4|Menon, Radhika|Andheera||
H/FPB 376|81-8146-568-7|Raghunath, jeeba|Upar upar||
H/FPB 377|81-8146-559-8|Raghunath, jeeba|Tangi kahan?||
H/FPB 378|81-8146-595-4|Rao, Sandhya|Aaina||
H/FPB 379|81-8146-489-3|Rao, Sandhya|Phool||
H/FPB 380|81-8146-586-5|Balsavar, Deepa|Hello||
H/FPB 381|81-8146-507-5|Subramaniam, Nivedita|9 se 1||
H/FPB 382|81-8146-793-0|Krishnaswami, Uma|Raasta Chhodo! Raasta Chhodo!||
H/FPB 383|81-8146-471-0|Spagnoli, Cathy|Oopar Aasmaan Mein||
H/FPB 384|93-5046-402-0|Mohan, Antra|Chalo chalein!||
H/FPB 385|93-5046-104-8|Mehta, Avanti|Patang Ped||
H/FPB 386|81-8146-847-3|Raman, DR.C.V.|Aakaash neela kyun hai||
H/FPB 387|81-8146-737-X|Zakariya, Paul|Ju ki kahani||
H/FPB 388|81-8146-534-2|Rao, Sandhya|Magarmachh ke aansu||
H/FPB 389|935046573-6|Namjoshi, Suniti|Chhoti e||
H/FPB 390|978-81-85586-04-5|Damyanti|Thahro Mat  Tharo||
H/FPB 391|93-5046-236-2|Majumdar, Saraswati Nandani|Satya ki naav||
H/FPB 392|935046512-4|Rajagopalan, Ashok|Gajapatti Kulatipati Chhapaakkdaadhom||
H/FPB 393 (A)|81-8146-604-7|Raghunath, Meena|Kaun karega raaj?||
H/FPB 394|81-8146-836-8|Rajagopalan, Ashok|Gajapati Kulapati||
H/FPB 395|935046464-0|Rao, Chatura|Nabiya||
H/FPB 396|978-81-89934-52-1|Velsan, Rosaliend|Ek Anmol Sathi Ke Leiye||
H/FPB 397|81-8146-443-5|Rao, Sandhya|Aur dharti yoon bani||
H/FPB 398|81-8146-149-5|Nair, Nandini|Pranav ki tasveer||
H/FPB 399|81-8146-120-7|Ramdurai, Suchitra|Bhaaga Bhaaga Mirch Ka Daana||
H/FPB 400|93-5046-217-6|Dastidaar, Raishmi|Aao!||
H/FPB 401|935046503-5|Dattatri, Shekhar|Nanhi Dolphin Ira||
H/FPB 403|818146262-9|Mutunda, Jacob Samson|Thakitta tharikitta phudakti ball||
H/FPB 404|81-86895-54-X|Rao, Sandhya|Sunusunu ghongha: bageeche mein toofan||
H/FPB 405|93-5046-199-4|Kolluru, Sharda|Ek patang naam korika||
H/FPB 406|81-8146-616-0|Ahlawat, Mariam Karim|Gulla Aur Hangul||
H/FPB 407|93-5046-121-8|Padamshi, Shamim|Panchhistan ka maha khel samaroh||
H/FPB 408|935046694-5|Bhuta, Bhavna Jain|Dungi Dance||
H/FPB 409|935046605-8|Radhakrishnan, Shreelata|Appaka||
H/FPB 410A|81-8146-752-3|Patnayak, Devdatt|Hanuman Ki Ramayan||
H/FPB 411|81-8146-020-0|Devi, Mahasweta|Kyun-Kyun Ladki||
H/FPB 412|93-5046-455-1|Sharma, Natasha|Ruru Raag||
H/FPB 413|93-5046-411-X|Jagat, Chandrakala|Jaaduyi Machchhi||
H/FPB 414|818146364-1|Ahlawat, Mariam Karim|Raja Aur Kiang||
H/FPB 415|93-5046-061-0|Anuradha, P.|Neem Taley||
H/FPB 417|||||
H/FPB 418|||||
H/FPB 419|978-93-8014157-2|Westendorp,Fiep|Yip aur Yanka: Holland ke do bachhe||
H/FPB 420|978-93-80141-42-8|Timmers Leo| Chitrkar Rana Ji||
H/FPB 421|978-93-80141-44-2|Nollet,Tomas|Jeet gayi Anu||
H/FPB 422|93-5046-008-4|Qureshi, Sameera Zia|Baingani Jojo||
H/FPB 423|978-93-80141-71-8|Westendorp,Fiep|Janmdin||
H/FPB 424|978-93-80141-19-0|Dorrie, Doris|Mimi Ki Mazedar Duniya||
H/FPB 425|978-93-80141-62-6|Nordqvist, Sven|Bhaalu Ki Taxi||
H/FPB 426|978-93-80141-60-2|Nordqvist, Sven|Bhaalu Ki Kursi||
H/FPB 427|81-8146-720-5|Shastry, Urmila|Shyampatta||
H/FPB 428|978-93-80141-55-8|Jagtenberg, Yvonne|Laali Ka Naya Dost||
H/FPB 429|978-93-80141-41-1|Jagtenberg, Yvonne|Laali Aur Uska Ghoda||
H/FPB 430|978-93-80141-39-8|Maiyala, Marika| Surili Ki  Lambi Tange||
H/FPB 431|978-93-80141-59-6|Wieslander,Jujja|Din ka Bhoot Party Mei||
H/FPB 432|978-93-80141-56-5|Kromhout, Rindert|Chutku Gadha||
H/FPB 433|978-93-80141-40-4|Kromhout, Rindert|Chutku Gadha aur Yaku Ka Janmdin||
H/FPB 434|978-93-80141-66-4|Kinder, Jan De|Laal||
H/FPB 435|978-93-80141-38-1|Havukainen. Aino|Dosti aur Mauj Masti||
H/FPB 436|978-93-80141-37-4|Helasika, Kaarina|Hero Dil||
H/FPB 437|978-93-80141-48-0|Gimbergsson,Sara|Lucky Aur Leela: Kabhi Kabhi Achha hai Chota Hona||
H/FPB 438|818146211-4|Mishra, Samina|Sheher mei Mere Dost||
H/FPB 439|978-93-80141-31-2|Dahle, Gro|Kya Ladki Hai||
H/FPB 440|978-93-80141-67-1|Norac, Carl|Rakshas, Mujhe mat khao!||
H/FPB 441|978-93-80141-45-9|Aertssen, Kristien|Pyaar Ki Rani||
H/FPB 442|978-93-82454-03-8|Thakur, Ravender Nath |Tara Khojek||
H/FPB 443|978-81-237-4768-2|Sharma. bi. je|Singh aur kantachuha||
H/FPB 444|978-81-89020-81-1|Kumar, Berender|Shangmiyang||
H/FPB 445|978-81-89020-70-5|Garsriya Lueis|Patte||
H/FPB 446|978-81-237-2985-5|Das, varsa|Suraj aur sashi||
H/FPB 447|978-81-237-5846-6|(Sanjay) Jaysval sanjiv|Chanda ginti bhool gya||
H/FPB 448|978-81-237-4806-1|Thakur, sanjiv|Doost kavoa||
H/FPB 449|978-81-237-0581-1|Dtta, sapna|Priyo ka khel||
H/FPB 450|978-81-237-6244-9|Tanbae, rajiv|Admi aur prchai||
H/FPB 451|978-81-237-7769-6|Kavi, sonika|Baalmati ki bhaes||
H/FPB 452|978-81-237-4930-3|Joshi, jagdish|Pheli||
H/FPB 453|812375844-8|Thakur, Ravindrnath|Dho hasyae ekanki||
H/FPB 454|978-81-237-6904-2|Ftipurkar, rnjna|Lal pari||
H/FPB 455|978-81-237-6022-3|Ramesh, divik|Deshbakth dako||
H/FPB 456|978-81-237-6822-9|Kumar, ramendar|Jhado lgane wala raja||
H/FPB 457|978-81-237-2329-7|Vishakha|Jadogar||
H/FPB 458 (A)|978-81-237-6388-0|Mnokrn, jynti|Saari duniya- Pyari duniya||
H/FPB 458 (B)|978-81-237-6388-0|Mnokrn, jynti|Saari duniya- Pyari duniya||
H/FPB 459|978-81-237-2178-1|Jfa, Mnorma|Ser aur mithto||
H/FPB 460|978-81-237-7637-8|As. syamla|Jab milea tho abivadn kare||
H/FPB 461|8123703392|Patel, Mickey|Rupa Hathi||
H/FPB 462A|978-93-5022-509-7|krishna, vineeta|Sona badi sayani||
H/FPB 462B|978-93-5022-509-7|krishna, vineeta|Sona badi sayani||
H/FPB 462C|978-93-5022-509-7|krishna, vineeta|Sona badi sayani||
H/FPB 463|978-93-80141-03-9|Branne, trunda|Paach dost||
H/FPB 464|978-93-80141-10-7|Branne, trunda|Dost ya dushman||
H/FPB 465|978-93-80141-50-3|Aang, lenart|||
H/FPB 466|978-93-5000-525-5|vaani prakashan|nanha murga laal kalgi||
H/FPB 467|81-89795-58-9|pandaya, baikunth|gilhari aur makai ke daane||
H/FPB 468|978-93-5072-203-9|pandaya, baikunth|lambi naak||
H/FPB 469|978-93-5000-550-7|vaani prakashan|ek, do, teen||
H/FPB 470|978-93-5000-529-3|vaani prakashan|sachitr kahaniyan||
H/FPB 471|978-93-5000-528-6|vaani prakashan|karhe ne chaaha sona||
H/FPB 472|978-93-5000-552-1|vaani prakashan|bhaalu raha bhaalu||
H/FPB 473|978-93-5000-527-9|vaani prakashan|circus||
H/FPB 474|978-93-5000-548-4|vaani prakashan|kissa machli machue ka||
H/FPB 475|978-93-5000-551-4|vaani prakashan|do bille||
H/FPB 476|978-93-5000-554-5|vaani prakashan|saabun paani zindabad||
H/FPB 477|978-93-5000-526-2|vaani prakashan|nanha murga||
H/FPB 478|978-93-5000-549-1|vaani prakashan|kasarati hans||
H/FPB 479 (A)|978-93-82454-05-2|Norhona, Lisa Dias|Gatila||
H/FPB 479 (B)|978-93-82454-05-2|Norhona, Lisa Dias|Gatila||
H/FPB 480|978-81-89976-08-8|Suteyev, V|Billi ke bache||
H/FPB 481|978-81-8477-623-2|Guljar|Paji Badal||
H/FPB 482|978-81-8479-430-4|Nayar, Nandni|Aama Jab School School Gayi||
H/FPB 483|978-81-8263-424-4|Chaturvedi, Pankaj|Chaand Aur Khargosh||
H/FPB 484 (A)|978-81-8479-450-2|Shrinivas, Mini|I Can Climb||
H/FPB 484 (B)|978-81-8479-450-2|Shrinivas, Mini|I Can Climb||
H/FPB 485 (A)|978-81-8479-445-8|Shrinivas, Mini|Main madad kar sakti hoon||
H/FPB 485 (B)|978-81-8479-445-8|Shrinivas, Mini|Main madad kar sakti hoon||
H/FPB 486|978-03-5022-616-2|Kumar,Mala|Kaun bola Boink||
H/FPB 487|||||
H/FPB 488|978-93-5022-363-5|Mayur, Rajeev|Ladke ka dhol||
H/FPB 489|978-81-89934-91-0|Dharmarajan, Geeta|Mehradm Ki Thagam||
H/FPB 490|978-81-8479-418-2|Karthrik, Lavanya|Kya dekhti hai Anu||
H/FPB 491 (A)|978-81-8263-140-3|Gowda, Venkataraman|Raju aur tarkari||
H/FPB 491 (B)|||||Intentionally left blank Fill new book
H/FPB 492|978-81-8263-712-2|Greystroke|Muft Ke Teen||
H/FPB 493 (B)|978-81-8263-143-4|Deshpande, Jaishree|Nauka Vihar||
H/FPB 493 (C)|978-81-8263-143-4|Deshpande, Jaishree|Nauka Vihar||
H/FPB 494 (A)|978-81-8479-455-7|Shrinivas, Mini|Mein bahut kuch bana sakti hoon||
H/FPB 494 (B)|978-81-8479-455-7|Shrinivas, Mini|Mein bahut kuch bana sakti hoon||
H/FPB 495|||||
H/FPB 496|978-93-5022-422-9|Jaunga Writer Group|Chatur Chooza||
H/FPB 497|978-93-81337-63-9|Suresh, BV|The Walking Stick||
H/FPB 499|978-93-5022-408-3|Kumar, Mala|Baarish me kya gayein||
H/FPB 500|978-93-5022-407-6|Kumar, Mala|Niralli Dadi||
H/FPB 501 (A)|978-81-89976-99-6|Duggal,Parul Batra|Ek Thi Bitti Ek Tha Bittu||
H/FPB 501 (B)|978-81-89976-99-6|Duggal,Parul Batra|Ek Thi Bitti Ek Tha Bittu||
H/FPB 502 (A)|978-93-5022-415-1|Bannerjee, Kanchan|Karkash Kauve||
H/FPB 502 (B)|978-93-5022-415-1|Bannerjee, Kanchan|Karkash Kauve||
H/FPB 503|978-81-8479-344-4|Gupto, Sorit|Bunti aur Babli||
H/FPB 504|978-81-8479-322-2|Kumar, Mala|Naya Navela Mausam||
H/FPB 505|978-81-8479-112-9|Swami, Sridala|Susheela ke kolam||
H/FPB 506|978-93-5022-380-2||Kamkaji Cheetiyan||
H/FPB 507|978-93-81300-76-3|Eklavya Publication|rukhi sukhi||
H/FPB 508|||||Intentionally left blank. Fill new book
H/FPB 509|978-93-5022-284-3|nilkani rohini|nani ki ainak||
H/FPB 510|978-93-5022-406-9|Kumar, Mala|hasmukh tau ki anokhi yatra||
H/FPB 511|||||Intentionally left blank. Fill new book
H/FPB 512|978-81-8263-065-9|chavan madhav|hum sab prani||
H/FPB 513|||||Intentionally left blank. Fill new book
H/FPB 514 (A)|978-81-8479-236-2|Besant, Annie|Sam Ka Christmas Uphaar||
H/FPB 514 (B)|978-81-8479-236-2|Besant, Annie|Sam Ka Christmas Uphaar||
H/FPB 514 (C)|978-81-8479-236-2|Besant, Annie|Sam Ka Christmas Uphaar||
H/FPB 515|978-93-5022-609-4|Venkat, Srividhya|Dho Daalo||
H/FPB 516|978-93-5022-195-2|Surti Aabid|Geeju Bhie Ka Khajana||
H/FPB 517|978-93-5022-409-0|Kumar, Mala|Pishi Phansi Toofan Mien||
H/FPB 518|978-93-5022-547-9|Rao, Shruthi|Avni Aur matar Ka podha||
H/FPB 519A|978-93-5022-423-6|Kui Writers Group|Asli Basila Uthhila Jaucha||
H/FPB 519C|978-93-5022-423-6|Kui Writers Group|Asli Basila Uthhila Jaucha||
H/FPB 520|978-93-5022-455-7|Purandare, Madhuri|Ek Sau Setensiva per||
H/FPB 521|978-93-5022-495-3|Punniyamurthi, kavitha|pambaram Ek Shararti Lattu||
H/FPB 522|978-93-5022-426-7|Munda Writers Group|Nach uthe Hathi||
H/FPB 523|93-5046-336-9|Nayar, Nandini|Lal Chhatri||
H/FPB 524|978-0-545-24469-5|Remiewicz Frank|Gus MAkes A Gift||
H/FPB 525|978-93-5103-287-8|Balkaran Ramdatt Kunti| Buddhu Dilli||
H/FPB 526|978-93-81300-67-1|Harikumar, Indu|Teen Dost||
H/FPB 527|978-93-81300-02-2|Eklavya|Joon Aur Too||
H/FPB 528|978-81-89976-12-5|Sevak,Nirankardev|Tesu Raja Beech Bazaar||
H/FPB 529|978-93-81300-00-8|Eklavya|Sowing a seed||
H/FPB 530|978-81-87171-90-4|Suteyeb, V|Mai Bhee||
H/FPB 531 (A)|978-93-81337-69-1|Dhurve, Paptu|Naya Sweater||
H/FPB 531 (B)|978-93-81337-69-1|Dhurve, Paptu|Naya Sweater||
H/FPB 531 (C)|978-93-81337-69-1|Dhurve, Paptu|Naya Sweater||
H/FPB 532|978-93-81300-36-3|Majumdar,Swaraswati Nandini|Barish||
H/FPB 533 (A)|978-93-81300-95-4|Majumdar,Swaraswati Nandini|Mera School||
H/FPB 533 (B)|978-93-81300-95-4|Majumdar,Swaraswati nandini|Mera School||
H/FPB 534|978-93-81337-69-1|Paptu,Dhurve|The New Sweater||
H/FPB 535|978-81-89976-01-9|Eklavya|O flowering tree||
H/FPB 536|978-81-89976-08-8|Suteyeb, V|Billi Ke Bachche||
H/FPB 537|978-81-89934-95-8|Naidu, Sarojni|Palki Wale||
H/FPB 538|978-81-906971-7-0|Gasemper Akram|Nilofar Ki Muskaan||
H/FPB 539|978-93-85236-01-3|Khalatbari Faridh|Neele Log||
H/FPB 540|978-81-906971-1-8|Khalatbari Faridh|Jhingur Ga Na Paye||
H/FPB 541A|978-93-81337-84-4|Shashi, Kanak|Ande Mein Ek Aur Anda Hai||
H/FPB 541B|978-93-81337-84-4|Shashi, Kanak|Ande Mein Ek Aur Anda Hai||
H/FPB 542|978-81-89976-20-0|Sinha, Suparna|Nanha Bagha||
H/FPB 543|978-81-89976-86-6|Nair, Nandini|School Mein Pranav Ka Pehla Din||
H/FPB 544|978-93-81337-64-6|Pravat|Oont Ka Phool||
H/FPB 545|978-93-81300-90-9|Eklavya|Cheenta||
H/FPB 546|978-93-81300-91-6|Bran,Nicolas|Patang Ki Karamaat||
H/FPB 547|||||
H/FPB 548||Majumdar, Swaraswati Nandini|Raat Me Nadi||
H/FPB 549|978-81-87171-28-7|Sahagal, Hardarshan|Bhaloo Ne Kheli Football||
H/FPB 550|978-81-906971-5-6|Eklavya|Geet Ka Kamal||
H/FPB 551|978-81-8479-221-8|Kumar, Ramender|Paplu Raksash||
H/FPB 552|978-81-8146-980-9|Baysat Peni|Mala Ki Chaandi Ki Payal||
H/FPB 553|935046702-x|Nayar, Nandini|Neetu's Big Box||
H/FPB 554|93-5046-392-X|Sondar, Chitra|Balu's Basket||
H/FPB 555 (A)|81-8146-890-2|Sasikumar kala|Four friends ||
H/FPB 555 (B)|81-8146-890-2|Sasikumar kala|Four friends ||
H/FPB 556 (A)|935046731-3|Thomas Meenu|Tiji Aur Cheenu||
H/FPB 556 (B)|935046731-3|Thomas Meenu|Tiji Aur Cheenu||
H/FPB 557|978-81-8263-056-7|Tendolkar, Meera|Mera Bat Kahan Hai||
H/FPB 558|935046749-6|Vyas Tanya|Kasturba||
H/FPB 559|935046776-3|Shom, Swati|Sher Chala Baal Kaatne||
H/FPB 560|93-5046-366-0|Jain, Alankrita|Chhoti Si Laali||
H/FPB 561|935046794-1|Purnyamurti, Kavita|Ghaar Aaya Mera Bholu||
H/FPB 562|935046832-8|Saras|Nakhush Chaand||
H/FPB 563|812372960-X|Meghani, Gopal|Kis Ka Dhan?||
H/FPB 564|978-817655-674-3|Prelar James|Hathi Ki Hichaki||
H/FPB 565|978-93-5046-823-4|Foujiya Gilani Biliyoms|Mnna Aur Maharaja||
H/FPB 566|97-81-8146-102-5|Bhutia, Chewang Dorji|Norbu Ke Naye Jute||
H/FPB 567|978-93-5046-767-1|Rajgopalan, Ashok|Gajapati Kulapati-Gurrburrrrooom!||
H/FPB 568|93-5046-227-3|Lal vinod Ishwar Heera|Chlo Baarish Pakden||
H/FPB 569|978-81-8263-267-7|Rao, Cheryl|Nanhe Madadgaar||
H/FPB 570|978-81-8263-889-1|Noni|Chand Ka Tohfa||
H/FPB 571|935046512-4|Rajgopalan, Ashok|Gajapati Kulapati-Chhapaakkdaadhom!||
H/FPB 572 (A)|978-93-5046-190-7|Navaneeth, Anand Arthi|Kya tumne yeh dekha hai?||
H/FPB 572 (B)|978-93-5046-190-7|Navaneeth, Anand Arthi|Kya tumne yeh dekha hai?||
H/FPB 572 (C)|978-93-5046-190-7|Navaneeth, Anand Arthi|Kya tumne yeh dekha hai?||
H/FPB 573|978-81-86895-29-0|Spagnoli, Cathy|Ek din priya ka||
H/FPB 574|978-93-5022-401-4|Bhaskar, Richa|Kyon Bhai Kyon?||
H/FPB 575||UNICEF|Chaana btasaa||
H/FPB 576|81-8263-047-9|Jaiswal, Sanjiv|Toota Pankh||
H/FPB 577|978-81-8146-866-6|Raghunath, Jeeva|Baatuni kachhua||
H/FPB 578|81-8353-104-0|Bahl,geetika|darok khargoh||
H/FPB 579|||||Intentionally left blank. Fill new book
H/FPB 580|||||Intentionally left blank. Fill new book
H/FPB 581|||||Intentionally left blank. Fill new book
H/FPB 582|||||Intentionally left blank. Fill new book
H/FPB 583||Kaushik, Kamlesh|Natkhat aur Sher||Intentionally left blank. Fill new book
H/FPB 584|||||Intentionally left blank. Fill new book
H/FPB 585|||||Intentionally left blank. Fill new book
H/FPB 586|||||Intentionally left blank. Fill new book
H/FPB 587|||||Intentionally left blank. Fill new book
H/FPB 588|||||Intentionally left blank. Fill new book
H/FPB 589|||||Intentionally left blank. Fill new book
H/FPB 590|||||Intentionally left blank. Fill new book
H/FPB 591|||||Intentionally left blank. Fill new book
H/FPB 592|978-93-5046-667-4|Satish, Amrutha|Cheetiyon Ke Peeche-Peeche||
H/FPB 593|978-81-7655-907-2|Cowen-Fletcher, Jane|Gaon Ka Bachcha||
H/FPB 594|||||
H/FPB 595|||||
H/FPB 596|978-81-8479-558-5|Menon, Suraj J|Meri Machhli! Nahin, Meri Machhli!||
H/FPB 597|978-81-8479-558-5|Menon, Suraj J|Meri Machhli! Nahin, Meri Machhli!||
H/FPB 598 (A)|978-93-8665-269-0|Karthik, Lavanya|Bahut Badi! Bahut Chhoti!||
H/FPB 599|||||
H/FPB 600|978-81-8902020-0|Dharmarajan, Geeta|Jadui BoyaJaal||
H/FPB 601||Unicef|Garam Jalebi||
H/FPB 602|||||
H/FPB 603|||||
H/FPB 604|||||
H/FPB 605 (A)|978-93-8665-274-4|Ahmad, Mazhar|Aiman Ka Basta||
H/FPB 605 (B)|978-93-8665-274-4|Ahmad, Mazhar|Aiman Ka Basta||
H/FPB 606|||||
H/FPB 607 (A)|978-93-8634-650-6|Ram, Praba and Preuitt, Sheela|Gutka Billi, Shanku Billi||
H/FPB 607 (B)|978-93-8634-650-6|Ram, Praba and Preuitt, Sheela|Gutka Billi, Shanku Billi||
H/FPB 608|||||
H/FPB 609 (A)|978-93-8634-665-0|Krishna, Vinita|Sona ki Naak Badi Tez||
H/FPB 609 (B)|978-93-8634-665-0|Krishna, Vinita|Sona ki Naak Badi Tez||
H/FPB 610|||||Intentionally left blank. Fill new book
H/FPB 611|||||Intentionally left blank. Fill new book
H/FPB 612|978-81-7655-678-1|Nayar Judi|Ped Ho Sakta Hae...||
H/FPB 613|||||Intentionally left blank. Fill new book
H/FPB 614|||||Intentionally left blank. Fill new book
H/FPB 615 (A)|978-93-80141-12-1|oulsand Bjorn|Rajkumar bho bho||
H/FPB 615 (B)|978-93-80141-12-1|oulsand Bjorn|Rajkumar bho bho||
H/FPB 616|||||Intentionally left blank. Fill new book
H/FPB 617 (A)|978--93-8665-297-3|Venkat, Srividhya|Nayi Ladki||
H/FPB 617 (B)|978--93-8665-297-3|Venkat, Srividhya|Nayi Ladki||
H/FPB 618 (A)|978-81-8263-208-0|Greystroke|Mehnat Ka Mantra||
H/FPB 618 (B)|978-81-8263-208-0|Greystroke|Mehnat Ka Mantra||
H/FPB 619|978-93-80141-03-9|Braenne Trond|Paanch Dost||
H/FPB 620|978-81-89020-97-2|Dharamarajan Geeta|Ma Ganga and The Razai Book||
H/FPB 621|978-81-8263-369-8|Pote, Geeta|Tidda||
H/FPB 622 (A)|978-81-8263-257-8|Pai, Roopa|Didi,didi,Raat ko Suraj Chacha Kahan Chhip Jate Hain?||
H/FPB 622 (B)|978-81-8263-257-8|Pai, Roopa|Didi,didi,Raat ko Suraj Chacha Kahan Chhip Jate Hain?||
H/FPB 623|978-93-80141-08-4|Mitre, Brijet|So jao sundar Sapno Mein Ko Jao||
H/FPB 624|||||
H/FPB 625|9788189020927|Dharmrajan, Gita |Kokila Ka Mast Matka ||
H/FPB 626|9788189020934|krishna Swami, Shanti|Abu Aur Badi Hawa||
H/FPB 627|9788189020873|D, Kavari|Mitzi||
H/FPB 628|9788189020941|Dharmrajan, Gita |Shanno Aur Uske 100 Hathi||
H/FPB 629|9788189020897|Marwha, Mala|Jadui martbaan||
H/FPB 630|9788189020910|Dharmrajan, Gita |Kash Ek Beta Mera Bhi Hota||
H/FPB 631|9788189020903|Anand, Charu|Gapgupangdas||
H/FPB 632|9788189020958|Koal, Bebha|Aisa Bhi Hota Hain||
H/FPB 633|9788187649649|krishna Swami, Shanti|Kamal se bhara aakash||
H/FPB 634|9788189020965|Bharduwaj, Meenakshi|Jishnu ki chaturai||