Account number|ISBN|Author/Publication|Title|Status|Reason|Additional comment
U/FE 1|812375246-6|Kamal, E, IBN|Pehele aap|||
U/FE 2|81-237-4171-51|Kumar, Kamal|Kaam kaji aurton ke adhikaar|||
U/FE 3||Bhattachariya, Durlav|Bhutu (Urdu)|Intentionally left blank. Fill new book||
U/FE 4|978-81-8479-489-2|Kazim,Mohammad|Ghat Wali Billi|||